{
  "id": 270822,
  "namePlugin": "Workspace",
  "authors": [
    {
      "name": "David",
      "email": "david.kovacic.20@singimail.rs",
      "web_page": "/"
    }
  ],
  "version": "1.0.0",
  "core_version": "1.0.0",
  "category": "workspace",
  "description": "This plugin enables user to enable or disable workspace.",
  "web_page": "/",
  "dependencies": [
		{
			"id": 123456,
			"version": "1.0.0"
		}
	
	]
}
