{
	"id": 21062001,
	"namePlugin": "Page Handler",
	"authors": [
		{
			"name": "Nedo",
			"email": "nedo.panic.20@singimail.rs",
			"web_page": "/"
		}
	],
	"version": "1.0.0",
	"core_version": "1.0.0",
	"category": "authorization",
	"description": "This plugin adds the ability to manipulate with page elements of document",
	"web_page": "/"
	
	
	
}
