{
	"id": 123456,
	"namePlugin": "DocumentHandler",
	"authors": [
		{
			"name": "Nedo",
			"email": "nedo.panic.20@singimail.rs",
			"web_page": "/"
		}
	],
	"version": "1.0.0",
	"core_version": "1.0.0",
	"category": "authorization",
	"description": "This plugin adds the ability to work with multimedia documents.",
	"web_page": "/",
	"dependencies": [
		{
			"id": 270822,
			"version": "1.0.0"
		}
	
	]
}
